Recent Tools for Time Series in R
…
tibbletime from Business Science

tsibble from Aero Wang under Rob Hyndman

Both define an enchanced tbl_df

Back to the start

(prm_typ <- permits %>% 
  group_by(APP_DT, PERMIT_TYP) %>%
  summarise(APPS = n(),
            UNITS = sum(UNITS, na.rm = T)) %>%
  ungroup())

## # A tibble: 14,456 x 4
##    APP_DT     PERMIT_TYP               APPS UNITS
##    <date>     <chr>                   <int> <int>
##  1 2010-01-04 Building                    5    44
##  2 2010-01-04 Excavation/Fill             1     0
##  3 2010-01-04 Fire Protection Systems     1     0
##  4 2010-01-04 HVAC                        8     7
##  5 2010-01-04 Misc. Structures            1     0
##  6 2010-01-04 Plumbing Permits            4     6
##  7 2010-01-04 Signs                       1     0
##  8 2010-01-05 Building                    3     4
##  9 2010-01-05 Excavation/Fill             1     0
## 10 2010-01-05 Fire Protection Systems     2     0
## # ... with 14,446 more rows

tsibble

(prm_tsbl <- as_tsibble(prm_typ, key = id(PERMIT_TYP)))

## # A tsibble: 14,456 x 4 [1DAY]
## # Keys:      PERMIT_TYP [14]
##    APP_DT     PERMIT_TYP               APPS UNITS
##    <date>     <chr>                   <int> <int>
##  1 2010-01-04 Building                    5    44
##  2 2010-01-04 Excavation/Fill             1     0
##  3 2010-01-04 Fire Protection Systems     1     0
##  4 2010-01-04 HVAC                        8     7
##  5 2010-01-04 Misc. Structures            1     0
##  6 2010-01-04 Plumbing Permits            4     6
##  7 2010-01-04 Signs                       1     0
##  8 2010-01-05 Building                    3     4
##  9 2010-01-05 Excavation/Fill             1     0
## 10 2010-01-05 Fire Protection Systems     2     0
## # ... with 14,446 more rows
…
special tsummarise function

aware of date index

plays nicely with lubridate functions

Convenient dplyr aggregation

## # A tsibble: 1,067 x 4 [1MONTH]
## # Keys:      PERMIT_TYP [14]
##    PERMIT_TYP     date min_units max_units
##    <chr>         <mth>     <dbl>     <dbl>
##  1 Building   2010 Jan      261.        0.
##  2 Building   2010 Feb      161.        0.
##  3 Building   2010 Mar      709.        2.
##  4 Building   2010 Apr      190.        0.
##  5 Building   2010 May      859.        4.
##  6 Building   2010 Jun       76.        2.
##  7 Building   2010 Jul       92.        1.
##  8 Building   2010 Aug      234.        1.
##  9 Building   2010 Sep      103.        1.
## 10 Building   2010 Oct      210.        4.
## # ... with 1,057 more rows
…
class(daily_ts)

## [1] "mts"    "ts"     "matrix"

… and back to tibble

tk_tbl(daily_ts, rename_index = "APP_DT")

## # A tibble: 2,059 x 3
##    APP_DT  APPS UNITS
##     <dbl> <int> <int>
##  1  2010.    21    57
##  2  2010.    22    19
##  3  2010.    39    15
##  4  2010.    30    28
##  5  2010.    30    25
##  6  2010.    16    14
##  7  2010.    38    25
##  8  2010.    25    16
##  9  2010.    54    59
## 10  2010.    27    68
## # ... with 2,049 more rows
…
